{
    "enus": {
	"answers": [
	    "Yes! Huge retrograde.",
	    "yeah...",
	    "Yes.",
	    "that is unclear at the moment... please check back",
	    "Absolutely.",
	    "Yes, it is.",
	    "Yep.",
	    "Yes!",
	    "Signs point to yes.",
	    "I believe so.",
	    "CONFIRMED",
	    "confirmative",
	    "i am afraid so",
	    "RETROGRADE ALERT",
	    "RETROGRADE DETECTED",
	    "HIGH RETROGRADE ALERT",
	    "VERY HIGH RETROGRADE ALERT",
	    "DANGERIOUSLY HIGH RETROGRADE ALERT",
	    "I've never seen so much retrograde!",
	    "no.... wait no yes it's retrograde",
	    "on a scale of 1 to 10, it's 5. oops i'm holding the meter upside down. well okay still 5"
	],
	"measurement": "measured very accurately and very scientifically on "
    }
}
